{
  "variables": [],
  "info": {
    "name": "Backend REST API",
    "_postman_id": "f2176407-9ee1-373c-1eef-19e76c0a8f1f",
    "description": "",
    "schema": "https://schema.getpostman.com/json/collection/v2.0.0/collection.json"
  },
  "item": [
    {
      "name": "Create a user",
      "request": {
        "url": "localhost:18000/api/1.0/user",
        "method": "POST",
        "header": [
          {
            "key": "Content-Type",
            "value": "application/json",
            "description": ""
          }
        ],
        "body": {
          "mode": "raw",
          "raw": "{\n\t\"username\":\"example_user1\",\n\t\"password\":\"password1\"\n}"
        },
        "description": "JSON parameters:\n- username\n- password"
      },
      "response": [
        {
          "id": "ee923ffb-1d47-45d6-8483-0bcc7b4deebb",
          "name": "Create user",
          "originalRequest": {
            "url": "localhost:18000/api/1.0/user",
            "method": "POST",
            "header": [
              {
                "key": "Content-Type",
                "value": "application/json",
                "description": ""
              }
            ],
            "body": {
              "mode": "raw",
              "raw": "{\n\t\"username\":\"example_user\",\n\t\"password\":\"password1\"\n}"
            },
            "description": ""
          },
          "status": "OK",
          "code": 200,
          "_postman_previewlanguage": "json",
          "_postman_previewtype": "text",
          "header": [
            {
              "key": "Content-Length",
              "value": "26",
              "name": "Content-Length",
              "description": ""
            },
            {
              "key": "Content-Type",
              "value": "application/json",
              "name": "Content-Type",
              "description": ""
            },
            {
              "key": "Date",
              "value": "Thu, 17 Aug 2017 16:03:57 GMT",
              "name": "Date",
              "description": ""
            },
            {
              "key": "Server",
              "value": "Werkzeug/0.12.2 Python/3.6.2",
              "name": "Server",
              "description": ""
            }
          ],
          "cookie": [],
          "responseTime": 345,
          "body": "{\n  \"result\": \"Success\"\n}\n"
        }
      ]
    },
    {
      "name": "Create a recipient user",
      "request": {
        "url": "localhost:18000/api/1.0/user",
        "method": "POST",
        "header": [
          {
            "key": "Content-Type",
            "value": "application/json",
            "description": ""
          }
        ],
        "body": {
          "mode": "raw",
          "raw": "{\n\t\"username\":\"example_user2\",\n\t\"password\":\"password1\"\n}"
        },
        "description": "JSON parameters:\n- username\n- password"
      },
      "response": [
        {
          "id": "ed85174b-3907-46fd-a23a-ec96053dc05e",
          "name": "Create user",
          "originalRequest": {
            "url": "localhost:18000/api/1.0/user",
            "method": "POST",
            "header": [
              {
                "key": "Content-Type",
                "value": "application/json",
                "description": ""
              }
            ],
            "body": {
              "mode": "raw",
              "raw": "{\n\t\"username\":\"example_user\",\n\t\"password\":\"password1\"\n}"
            },
            "description": ""
          },
          "status": "OK",
          "code": 200,
          "_postman_previewlanguage": "json",
          "_postman_previewtype": "text",
          "header": [
            {
              "key": "Content-Length",
              "value": "26",
              "name": "Content-Length",
              "description": ""
            },
            {
              "key": "Content-Type",
              "value": "application/json",
              "name": "Content-Type",
              "description": ""
            },
            {
              "key": "Date",
              "value": "Thu, 17 Aug 2017 16:03:57 GMT",
              "name": "Date",
              "description": ""
            },
            {
              "key": "Server",
              "value": "Werkzeug/0.12.2 Python/3.6.2",
              "name": "Server",
              "description": ""
            }
          ],
          "cookie": [],
          "responseTime": 345,
          "body": "{\n  \"result\": \"Success\"\n}\n"
        }
      ]
    },
    {
      "name": "Send a message",
      "request": {
        "url": "localhost:18000/api/1.0/messages",
        "method": "POST",
        "header": [
          {
            "key": "Content-Type",
            "value": "application/json",
            "description": ""
          },
          {
            "key": "Authorization",
            "value": "Basic ZXhhbXBsZV91c2VyMTpwYXNzd29yZDE=",
            "description": ""
          }
        ],
        "body": {
          "mode": "raw",
          "raw": "{\n\t\"recipient\":\"example_user2\",\n\t\"body\":\"Hello!\"\n}"
        },
        "description": "Message can be of type text, image link, or video link.\n\nFor a text message, there is no additional parameters.\n\nFor an image or video link, an addtional attachment object. Since defaults are being used for metadata, only the type and link are required.\n\nBasic Auth of sender required.\n\nJSON parameters:\n- recipient: username\n- body: message text\n\nAdditional JSON parameters for image link:\n- attachment: object\n\t- type: \"image_link\"\n\t- link\n\nAdditional JSON parameters for video link:\n- attachment: object\n\t- type: \"video_link\"\n\t- link"
      },
      "response": [
        {
          "id": "26437181-56d0-428d-97bd-bc41fbe59fa0",
          "name": "Basic text message",
          "originalRequest": {
            "url": "localhost:18000/api/1.0/messages",
            "method": "POST",
            "header": [
              {
                "key": "Content-Type",
                "value": "application/json",
                "description": ""
              },
              {
                "key": "Authorization",
                "value": "Basic bmV3X3VzZXIxOnBhc3N3b3JkMQ==",
                "description": ""
              }
            ],
            "body": {
              "mode": "raw",
              "raw": "{\n\t\"recipient\":\"example_user2\",\n\t\"body\":\"Hello World!\"\n}"
            },
            "description": ""
          },
          "status": "OK",
          "code": 200,
          "_postman_previewlanguage": "json",
          "_postman_previewtype": "text",
          "header": [
            {
              "key": "Content-Length",
              "value": "26",
              "name": "Content-Length",
              "description": "The length of the response body in octets (8-bit bytes)"
            },
            {
              "key": "Content-Type",
              "value": "application/json",
              "name": "Content-Type",
              "description": "The mime type of this content"
            },
            {
              "key": "Date",
              "value": "Thu, 17 Aug 2017 15:26:09 GMT",
              "name": "Date",
              "description": "The date and time that the message was sent"
            },
            {
              "key": "Server",
              "value": "Werkzeug/0.12.2 Python/3.6.2",
              "name": "Server",
              "description": "A name for the server"
            }
          ],
          "cookie": [],
          "responseTime": 371,
          "body": "{\n  \"result\": \"Success\"\n}\n"
        },
        {
          "id": "98a33d23-239b-4918-8f3f-88b6d2d1a010",
          "name": "Image link message",
          "originalRequest": {
            "url": "localhost:18000/api/1.0/messages",
            "method": "POST",
            "header": [
              {
                "key": "Content-Type",
                "value": "application/json",
                "description": ""
              },
              {
                "key": "Authorization",
                "value": "Basic bmV3X3VzZXIxOnBhc3N3b3JkMQ==",
                "description": ""
              }
            ],
            "body": {
              "mode": "raw",
              "raw": "{\n\t\"recipient\":\"example_user2\",\n\t\"message\":\"\",\n\t\"attachment\":{\n\t\t\"type\":\"image_link\",\n\t\t\"link\":\"http://example.com/picture.jpg\"\n\t}\n}"
            },
            "description": ""
          },
          "status": "OK",
          "code": 200,
          "_postman_previewlanguage": "json",
          "_postman_previewtype": "text",
          "header": [
            {
              "key": "Content-Length",
              "value": "26",
              "name": "Content-Length",
              "description": "The length of the response body in octets (8-bit bytes)"
            },
            {
              "key": "Content-Type",
              "value": "application/json",
              "name": "Content-Type",
              "description": "The mime type of this content"
            },
            {
              "key": "Date",
              "value": "Thu, 17 Aug 2017 15:28:26 GMT",
              "name": "Date",
              "description": "The date and time that the message was sent"
            },
            {
              "key": "Server",
              "value": "Werkzeug/0.12.2 Python/3.6.2",
              "name": "Server",
              "description": "A name for the server"
            }
          ],
          "cookie": [],
          "responseTime": 340,
          "body": "{\n  \"result\": \"Success\"\n}\n"
        },
        {
          "id": "7f481f2c-8ac8-4f01-a475-b53d35f0afb0",
          "name": "Video link message",
          "originalRequest": {
            "url": "localhost:18000/api/1.0/messages",
            "method": "POST",
            "header": [
              {
                "key": "Content-Type",
                "value": "application/json",
                "description": ""
              },
              {
                "key": "Authorization",
                "value": "Basic bmV3X3VzZXIxOnBhc3N3b3JkMQ==",
                "description": ""
              }
            ],
            "body": {
              "mode": "raw",
              "raw": "{\n\t\"recipient\":\"example_user2\",\n\t\"message\":\"\",\n\t\"attachment\":{\n\t\t\"type\":\"video_link\",\n\t\t\"link\":\"Http://youtube.com/video\"\n\t}\n}"
            },
            "description": ""
          },
          "status": "OK",
          "code": 200,
          "_postman_previewlanguage": "json",
          "_postman_previewtype": "text",
          "header": [
            {
              "key": "Content-Length",
              "value": "26",
              "name": "Content-Length",
              "description": ""
            },
            {
              "key": "Content-Type",
              "value": "application/json",
              "name": "Content-Type",
              "description": ""
            },
            {
              "key": "Date",
              "value": "Thu, 17 Aug 2017 15:31:42 GMT",
              "name": "Date",
              "description": ""
            },
            {
              "key": "Server",
              "value": "Werkzeug/0.12.2 Python/3.6.2",
              "name": "Server",
              "description": ""
            }
          ],
          "cookie": [],
          "responseTime": 321,
          "body": "{\n  \"result\": \"Success\"\n}\n"
        }
      ]
    },
    {
      "name": "Fetch messages",
      "request": {
        "url": {
          "raw": "localhost:18000/api/1.0/messages?user1=example_user1&user2=example_user2",
          "host": [
            "localhost"
          ],
          "port": "18000",
          "path": [
            "api",
            "1.0",
            "messages"
          ],
          "query": [
            {
              "key": "user1",
              "value": "example_user1",
              "equals": true,
              "description": ""
            },
            {
              "key": "user2",
              "value": "example_user2",
              "equals": true,
              "description": ""
            },
            {
              "key": "messages_per_page",
              "value": "",
              "equals": false,
              "description": "",
              "disabled": true
            },
            {
              "key": "page",
              "value": "",
              "equals": false,
              "description": "",
              "disabled": true
            }
          ],
          "variable": []
        },
        "method": "GET",
        "header": [
          {
            "key": "Authorization",
            "value": "Basic ZXhhbXBsZV91c2VyMTpwYXNzd29yZDE=",
            "description": ""
          }
        ],
        "body": {},
        "description": "Fetch messages between two users from most recent to least recent.\n\nBasic Auth of one of the two users is required.\n\nQuery Parameters:\n\n- user1\n- user2\n\nOptional Query Parameters:\n\n- messages_per_page\n- page: (If fetching first page, parameter is not required)"
      },
      "response": [
        {
          "id": "a38d4acf-fb01-4de6-acc7-b7f8068a5217",
          "name": "Fetch all messages between exampleuser1 and exampleuser2",
          "originalRequest": {
            "url": {
              "raw": "localhost:18000/api/1.0/messages?user1=exampleuser1&user2=exampleuser2",
              "host": [
                "localhost"
              ],
              "port": "18000",
              "path": [
                "api",
                "1.0",
                "messages"
              ],
              "query": [
                {
                  "key": "user1",
                  "value": "exampleuser1",
                  "equals": true,
                  "description": ""
                },
                {
                  "key": "user2",
                  "value": "exampleuser2",
                  "equals": true,
                  "description": ""
                }
              ],
              "variable": []
            },
            "method": "GET",
            "header": [
              {
                "key": "Authorization",
                "value": "Basic bmV3X3VzZXIxOnBhc3N3b3JkMQ==",
                "description": ""
              }
            ],
            "body": {
              "mode": "raw",
              "raw": ""
            },
            "description": ""
          },
          "status": "OK",
          "code": 200,
          "_postman_previewlanguage": "json",
          "_postman_previewtype": "text",
          "header": [
            {
              "key": "Content-Length",
              "value": "641",
              "name": "Content-Length",
              "description": ""
            },
            {
              "key": "Content-Type",
              "value": "application/json",
              "name": "Content-Type",
              "description": ""
            },
            {
              "key": "Date",
              "value": "Thu, 17 Aug 2017 15:54:24 GMT",
              "name": "Date",
              "description": ""
            },
            {
              "key": "Server",
              "value": "Werkzeug/0.12.2 Python/3.6.2",
              "name": "Server",
              "description": ""
            }
          ],
          "cookie": [],
          "responseTime": 385,
          "body": "{\n  \"result\": [\n    {\n      \"date_time\": \"2017-08-17 15:31:42\", \n      \"recipient\": \"new_user2\", \n      \"sender\": \"new_user1\", \n      \"video_length_time\": \"0:05:00\", \n      \"video_link\": \"Http://youtube.com/video\", \n      \"video_source\": \"YouTube\"\n    }, \n    {\n      \"date_time\": \"2017-08-17 15:28:26\", \n      \"image_height\": \"200\", \n      \"image_link\": \"http://example.com/picture.jpg\", \n      \"image_width\": \"100\", \n      \"recipient\": \"new_user2\", \n      \"sender\": \"new_user1\"\n    }, \n    {\n      \"body\": \"Hello World!\", \n      \"date_time\": \"2017-08-17 15:26:09\", \n      \"recipient\": \"new_user2\", \n      \"sender\": \"new_user1\"\n    }\n  ]\n}\n"
        },
        {
          "id": "a73eca1b-35bd-4633-906e-3703fb91a475",
          "name": "Fetch first 2 messages between exampleuser1 and exampleuser2. For the first page, the page parameter can be 0 or left out.",
          "originalRequest": {
            "url": {
              "raw": "localhost:18000/api/1.0/messages?user1=exampleuser1&user2=exampleuser2&messages_per_page=2",
              "host": [
                "localhost"
              ],
              "port": "18000",
              "path": [
                "api",
                "1.0",
                "messages"
              ],
              "query": [
                {
                  "key": "user1",
                  "value": "exampleuser1",
                  "equals": true,
                  "description": ""
                },
                {
                  "key": "user2",
                  "value": "exampleuser2",
                  "equals": true,
                  "description": ""
                },
                {
                  "key": "messages_per_page",
                  "value": "2",
                  "equals": true,
                  "description": ""
                }
              ],
              "variable": []
            },
            "method": "GET",
            "header": [
              {
                "key": "Authorization",
                "value": "Basic bmV3X3VzZXIxOnBhc3N3b3JkMQ==",
                "description": ""
              }
            ],
            "body": {
              "mode": "raw",
              "raw": ""
            },
            "description": ""
          },
          "status": "OK",
          "code": 200,
          "_postman_previewlanguage": "json",
          "_postman_previewtype": "text",
          "header": [
            {
              "key": "Content-Length",
              "value": "492",
              "name": "Content-Length",
              "description": ""
            },
            {
              "key": "Content-Type",
              "value": "application/json",
              "name": "Content-Type",
              "description": ""
            },
            {
              "key": "Date",
              "value": "Thu, 17 Aug 2017 15:55:39 GMT",
              "name": "Date",
              "description": ""
            },
            {
              "key": "Server",
              "value": "Werkzeug/0.12.2 Python/3.6.2",
              "name": "Server",
              "description": ""
            }
          ],
          "cookie": [],
          "responseTime": 333,
          "body": "{\n  \"result\": [\n    {\n      \"date_time\": \"2017-08-17 15:31:42\", \n      \"recipient\": \"new_user2\", \n      \"sender\": \"new_user1\", \n      \"video_length_time\": \"0:05:00\", \n      \"video_link\": \"Http://youtube.com/video\", \n      \"video_source\": \"YouTube\"\n    }, \n    {\n      \"date_time\": \"2017-08-17 15:28:26\", \n      \"image_height\": \"200\", \n      \"image_link\": \"http://example.com/picture.jpg\", \n      \"image_width\": \"100\", \n      \"recipient\": \"new_user2\", \n      \"sender\": \"new_user1\"\n    }\n  ]\n}\n"
        },
        {
          "id": "7df264b9-8076-4871-9a09-ec95de488f3b",
          "name": "Fetch page 2 of 2 messages per page between exampleuser1 and exampleuser2.",
          "originalRequest": {
            "url": {
              "raw": "localhost:18000/api/1.0/messages?user1=exampleuser1&user2=exampleuser2&messages_per_page=2&page=1",
              "host": [
                "localhost"
              ],
              "port": "18000",
              "path": [
                "api",
                "1.0",
                "messages"
              ],
              "query": [
                {
                  "key": "user1",
                  "value": "exampleuser1",
                  "equals": true,
                  "description": ""
                },
                {
                  "key": "user2",
                  "value": "exampleuser2",
                  "equals": true,
                  "description": ""
                },
                {
                  "key": "messages_per_page",
                  "value": "2",
                  "equals": true,
                  "description": ""
                },
                {
                  "key": "page",
                  "value": "1",
                  "equals": true,
                  "description": ""
                }
              ],
              "variable": []
            },
            "method": "GET",
            "header": [
              {
                "key": "Authorization",
                "value": "Basic bmV3X3VzZXIxOnBhc3N3b3JkMQ==",
                "description": ""
              }
            ],
            "body": {
              "mode": "raw",
              "raw": ""
            },
            "description": ""
          },
          "status": "OK",
          "code": 200,
          "_postman_previewlanguage": "json",
          "_postman_previewtype": "text",
          "header": [
            {
              "key": "Content-Length",
              "value": "169",
              "name": "Content-Length",
              "description": ""
            },
            {
              "key": "Content-Type",
              "value": "application/json",
              "name": "Content-Type",
              "description": ""
            },
            {
              "key": "Date",
              "value": "Thu, 17 Aug 2017 15:56:24 GMT",
              "name": "Date",
              "description": ""
            },
            {
              "key": "Server",
              "value": "Werkzeug/0.12.2 Python/3.6.2",
              "name": "Server",
              "description": ""
            }
          ],
          "cookie": [],
          "responseTime": 365,
          "body": "{\n  \"result\": [\n    {\n      \"body\": \"Hello World!\", \n      \"date_time\": \"2017-08-17 15:26:09\", \n      \"recipient\": \"new_user2\", \n      \"sender\": \"new_user1\"\n    }\n  ]\n}\n"
        }
      ]
    }
  ]
}